…
    ## `summarise()` has grouped output by 'neighbourhood_name'. You can override
    ## using the `.groups` argument.

``` r
print(trees_species2)
```

    ## # A tibble: 44 × 5
    ## # Groups:   neighbourhood_name [22]
    ##    neighbourhood_name con_or_non  con_count   sum proportion
    ##    <chr>              <chr>           <int> <int>      <dbl>
    ##  1 ARBUTUS-RIDGE      Conifer           255  5169    0.0493 
    ##  2 ARBUTUS-RIDGE      Non-Conifer      4914  5169    0.951  
    ##  3 DOWNTOWN           Conifer            26  5158    0.00504
    ##  4 DOWNTOWN           Non-Conifer      5132  5158    0.995  
    ##  5 DUNBAR-SOUTHLANDS  Conifer           394  9414    0.0419 
    ##  6 DUNBAR-SOUTHLANDS  Non-Conifer      9020  9414    0.958  
    ##  7 FAIRVIEW           Conifer           117  4002    0.0292 
    ##  8 FAIRVIEW           Non-Conifer      3885  4002    0.971  
    ##  9 GRANDVIEW-WOODLAND Conifer           157  6703    0.0234 
    ## 10 GRANDVIEW-WOODLAND Non-Conifer      6546  6703    0.977  
    ## # ℹ 34 more rows
…
